{
  "migIndex": 1,
  "data": [
    {
      "path": "assets/dist/fonts/Lato-Black.ttf",
      "sha1": "5fd35255dfd38b179c80db42e1b9d40b0d05e0b3"
    },
    {
      "path": "assets/dist/fonts/Lato-Bold.ttf",
      "sha1": "d67fee08c79a82ce375ab9629ae5a903da8bb321"
    },
    {
      "path": "assets/dist/fonts/Lato-Regular.ttf",
      "sha1": "83dc5921761a7c3d1ee7badba3fc7e1e1f5ed803"
    },
    {
      "path": "assets/dist/fonts/Roboto-Bold.ttf",
      "sha1": "3dd713113ff2d79b94d2df343e2e28fa8e7279cf"
    },
    {
      "path": "assets/dist/fonts/Roboto-Regular.ttf",
      "sha1": "096c9245b6a192d1403a82848e104a65f578a8ec"
    },
    {
      "path": "assets/dist/fonts/SmartStore.ttf",
      "sha1": "5fba4e776447b2f0cab20f9f8adafd71ff95bd4c"
    }
  ]
}
