<svg width="28" height="28" viewBox="0 0 28 28" fill="none" xmlns="http://www.w3.org/2000/svg">
<path d="M27.0299 22.0026L22.8845 17.8568C22.0589 17.0345 20.6915 17.0594 19.8371 17.9142L17.7486 20.0022C17.6167 19.9294 17.4801 19.8535 17.3365 19.7729C16.0177 19.0422 14.2127 18.0406 12.3132 16.1398C10.4082 14.2349 9.40568 12.4271 8.6727 11.1074C8.59536 10.9676 8.52125 10.8328 8.44806 10.7048L9.84971 9.30525L10.5388 8.6153C11.3946 7.75932 11.4182 6.39237 10.5944 5.56762L6.44908 1.42136C5.62533 0.597763 4.25738 0.622749 3.40163 1.47873L2.23333 2.65374L2.26526 2.68543C1.87351 3.18529 1.54616 3.76181 1.30255 4.38351C1.07799 4.9753 0.938179 5.54001 0.87425 6.10589C0.326885 10.6437 2.40052 14.7909 8.02809 20.4185C15.8071 28.197 22.076 27.6094 22.3464 27.5807C22.9354 27.5103 23.4999 27.3695 24.0736 27.1468C24.6899 26.906 25.266 26.5791 25.7656 26.1882L25.7911 26.2109L26.9747 25.0519C27.8286 24.1961 27.8532 22.8287 27.0299 22.0026Z" fill="white"/>
</svg>
