<!-- Generated by IcoMoon.io -->
<svg version="1.1" xmlns="http://www.w3.org/2000/svg" width="32" height="32" viewBox="0 0 32 32">
<title>contact</title>
<path d="M29.676 1.801h-20.882c-0.701 0.001-1.27 0.569-1.271 1.271v5.76l-0.955-1.432c-0.437-0.659-1.316-0.857-1.993-0.449l-1.965 1.181c-0.643 0.378-1.115 0.99-1.317 1.708-0.717 2.61-0.185 7.105 6.414 13.705 5.248 5.242 9.16 6.654 11.857 6.654 0.624 0.003 1.246-0.078 1.849-0.241 0.718-0.201 1.33-0.673 1.708-1.315l1.18-1.967c0.407-0.677 0.209-1.554-0.449-1.991l-4.704-3.136c-0.645-0.427-1.51-0.287-1.988 0.322l-1.37 1.761c-0.143 0.188-0.403 0.243-0.61 0.129l-0.261-0.144c-0.858-0.467-1.925-1.050-4.081-3.206-0.233-0.233-0.445-0.451-0.643-0.66h19.478c0.7 0.001 1.268-0.565 1.271-1.265v-15.415c-0.001-0.702-0.569-1.27-1.271-1.271zM14.445 24.493l0.253 0.139c0.636 0.356 1.438 0.191 1.881-0.388l1.37-1.761c0.156-0.198 0.437-0.244 0.648-0.105l4.704 3.136c0.214 0.142 0.278 0.427 0.146 0.648l-1.18 1.967c-0.246 0.422-0.647 0.733-1.117 0.867-2.356 0.648-6.479 0.1-12.736-6.158s-6.804-10.381-6.157-12.734c0.134-0.47 0.444-0.87 0.867-1.117l1.967-1.18c0.22-0.132 0.505-0.067 0.648 0.146l3.137 4.704c0.139 0.21 0.093 0.492-0.105 0.648l-1.761 1.37c-0.578 0.444-0.744 1.245-0.388 1.881l0.14 0.253c0.498 0.914 1.118 2.051 3.376 4.309s3.395 2.878 4.308 3.376zM29.951 18.487c-0.002 0.15-0.124 0.27-0.274 0.269h-20.377c-0.647-0.74-1.205-1.554-1.663-2.424l-0.144-0.262c-0.114-0.207-0.060-0.466 0.129-0.609l1.761-1.37c0.609-0.477 0.749-1.342 0.322-1.988l-1.184-1.777v-7.255c-0.001-0.073 0.028-0.143 0.079-0.195s0.122-0.080 0.195-0.079h20.882c0.073-0.001 0.143 0.028 0.195 0.079s0.080 0.122 0.079 0.195v15.415h0z"></path>
<path d="M27.96 4.109l-8.329 6.317c-0.236 0.171-0.555 0.171-0.79 0l-8.326-6.317c-0.219-0.166-0.532-0.123-0.698 0.096s-0.123 0.532 0.096 0.698l8.327 6.316c0.592 0.438 1.401 0.438 1.993 0l8.33-6.316c0.105-0.080 0.175-0.198 0.193-0.33s-0.017-0.264-0.097-0.369c-0.166-0.219-0.479-0.262-0.698-0.096z"></path>
<path d="M14.983 11.261l-5.105 5.467c-0.188 0.201-0.177 0.517 0.025 0.704s0.517 0.177 0.704-0.025l5.105-5.47c0.169-0.203 0.149-0.503-0.045-0.683s-0.494-0.177-0.685 0.006z"></path>
<path d="M23.522 11.261c-0.188-0.201-0.503-0.212-0.704-0.025s-0.212 0.503-0.025 0.704l5.104 5.467c0.188 0.201 0.503 0.212 0.704 0.025s0.212-0.503 0.025-0.704l-5.104-5.467z"></path>
</svg>
