<svg width="28" height="28" viewBox="0 0 28 28" fill="none" xmlns="http://www.w3.org/2000/svg">
<path d="M28 4.66698C28 2.2148 25.7861 0 23.3333 0H4.66667C2.21387 0 0 2.2148 0 4.66698V23.333C0 25.7852 2.21387 28 4.66698 28H14V17.4222H10.5778V12.7556H14V10.9374C14 7.80173 16.3545 4.97778 19.25 4.97778H23.0222V9.64444H19.25C18.8372 9.64444 18.3556 10.1456 18.3556 10.8964V12.7556H23.0222V17.4222H18.3556V28H23.3333C25.7861 28 28 25.7852 28 23.333V4.66698Z" fill="#6C6C6C"/>
</svg>
