<svg width="9" height="8" viewBox="0 0 9 8" fill="none" xmlns="http://www.w3.org/2000/svg">
<path d="M3.9986 1.96721C3.9986 2.27322 3.94394 2.54827 3.83462 2.79235C3.7253 3.03279 3.57814 3.23679 3.39313 3.40437C3.21233 3.56831 3 3.69399 2.75613 3.78142C2.51647 3.86885 2.26209 3.91257 1.99299 3.91257C1.71128 3.91257 1.44849 3.86885 1.20463 3.78142C0.960757 3.69399 0.748423 3.56831 0.567624 3.40437C0.39103 3.23679 0.252277 3.03279 0.151366 2.79235C0.0504555 2.54827 0 2.27322 0 1.96721C0 1.65392 0.0504555 1.37523 0.151366 1.13115C0.252277 0.887067 0.39103 0.681238 0.567624 0.513661C0.748423 0.346084 0.960757 0.218579 1.20463 0.131147C1.44849 0.0437157 1.71128 0 1.99299 0C2.27891 0 2.5438 0.0437157 2.78767 0.131147C3.03153 0.218579 3.24387 0.346084 3.42467 0.513661C3.60547 0.681238 3.74632 0.887067 3.84723 1.13115C3.94814 1.37523 3.9986 1.65392 3.9986 1.96721ZM3.12824 1.96721C3.12824 1.72678 3.09881 1.52277 3.03994 1.35519C2.98108 1.18761 2.89909 1.051 2.79397 0.945355C2.69306 0.836066 2.57323 0.757741 2.43448 0.710382C2.29573 0.663024 2.14856 0.639344 1.99299 0.639344C1.83742 0.639344 1.69236 0.663024 1.55781 0.710382C1.42327 0.757741 1.30554 0.836066 1.20463 0.945355C1.10371 1.051 1.02383 1.18761 0.964962 1.35519C0.906097 1.52277 0.876664 1.72678 0.876664 1.96721C0.876664 2.20401 0.906097 2.40619 0.964962 2.57377C1.02383 2.7377 1.10371 2.8725 1.20463 2.97814C1.30554 3.08015 1.42327 3.15483 1.55781 3.20219C1.69236 3.2459 1.83742 3.26776 1.99299 3.26776C2.14856 3.26776 2.29573 3.2459 2.43448 3.20219C2.57323 3.15483 2.69306 3.08015 2.79397 2.97814C2.89909 2.8725 2.98108 2.7377 3.03994 2.57377C3.09881 2.40619 3.12824 2.20401 3.12824 1.96721ZM7.19622 0.240437C7.23826 0.196721 7.28662 0.15847 7.34128 0.125683C7.40014 0.0928959 7.47793 0.0765024 7.57463 0.0765024H8.38823L1.77856 7.74863C1.74071 7.79599 1.69236 7.83424 1.6335 7.86339C1.57463 7.89253 1.50315 7.9071 1.41906 7.9071H0.592852L7.19622 0.240437ZM9 6.06011C9 6.36612 8.94534 6.63934 8.83602 6.87978C8.7267 7.12022 8.57954 7.32423 8.39453 7.4918C8.21374 7.65574 8.0014 7.78142 7.75753 7.86885C7.51787 7.95628 7.26349 8 6.99439 8C6.70848 8 6.44359 7.95628 6.19972 7.86885C5.96006 7.78142 5.74983 7.65574 5.56903 7.4918C5.39243 7.32423 5.25368 7.12022 5.15277 6.87978C5.05186 6.63934 5.0014 6.36612 5.0014 6.06011C5.0014 5.74681 5.05186 5.46812 5.15277 5.22404C5.25368 4.97632 5.39243 4.76867 5.56903 4.60109C5.74983 4.43352 5.96006 4.30601 6.19972 4.21858C6.44359 4.13115 6.70848 4.08743 6.99439 4.08743C7.2761 4.08743 7.53889 4.13115 7.78276 4.21858C8.03083 4.30601 8.24317 4.43352 8.41976 4.60109C8.60056 4.76867 8.74142 4.97632 8.84233 5.22404C8.94744 5.46812 9 5.74681 9 6.06011ZM8.12964 6.06011C8.12964 5.81967 8.10021 5.61566 8.04135 5.44809C7.98248 5.27687 7.90049 5.13843 7.79538 5.03279C7.69446 4.92714 7.57463 4.85064 7.43588 4.80328C7.29713 4.75592 7.14997 4.73224 6.99439 4.73224C6.83882 4.73224 6.69166 4.75592 6.55291 4.80328C6.41836 4.85064 6.30063 4.92714 6.19972 5.03279C6.09881 5.13843 6.01892 5.27687 5.96006 5.44809C5.9054 5.61566 5.87807 5.81967 5.87807 6.06011C5.87807 6.2969 5.9054 6.49727 5.96006 6.6612C6.01892 6.82514 6.09881 6.95993 6.19972 7.06557C6.30063 7.16758 6.41836 7.24226 6.55291 7.28962C6.69166 7.33333 6.83882 7.35519 6.99439 7.35519C7.14997 7.35519 7.29713 7.33333 7.43588 7.28962C7.57463 7.24226 7.69446 7.16758 7.79538 7.06557C7.90049 6.95993 7.98248 6.82514 8.04135 6.6612C8.10021 6.49727 8.12964 6.2969 8.12964 6.06011Z" fill="black"/>
</svg>
